{
  "version": 1,
  "type": "doc",
  "content": [
    {
      "type": "mediaSingle",
      "attrs": {
        "width": 50,
        "layout": "wrap-left"
      },
      "content": [
        {
          "type": "media",
          "attrs": {
            "id": "a559980d-cd47-43e2-8377-27359fcb905f",
            "type": "file",
            "collection": "MediaServicesSample",
            "width": 520,
            "height": 520
          }
        }
      ]
    },
    {
      "type": "paragraph",
      "content": [
        {
          "type": "text",
          "text": "hello there"
        }
      ]
    },
    {
      "type": "paragraph",
      "content": []
    }
  ]
}
